
2023-01-03-21.11.08.203973+000 I1E2116               LEVEL: Event
PID     : 18185                TID : 140458881705728 PROC : db2sysc 0
INSTANCE: db2inst1             NODE : 000            DB   : NPOLICE
APPHDL  : 0-8                  APPID: *LOCAL.db2inst1.230103211107
AUTHID  : DB2INST1             HOSTNAME: 172a429d98e0
EDUID   : 22                   EDUNAME: db2agent (NPOLICE) 0
FUNCTION: DB2 UDB, RAS/PD component, pdLogInternal, probe:120
START   : New Diagnostic Log file
DATA #1 : Build Level, 248 bytes
Instance "db2inst1" uses "64" bits and DB2 code release "SQL11058"
with level identifier "0609010F".
Informational tokens are "DB2 v11.5.8.0", "s2209201700", "DYN2209201700AMD64", Fix Pack "0".
DATA #2 : System Info, 664 bytes
System: Linux 172a429d98e0 4 5 x86_64
CPU: total:2 online:2 Cores per socket:1 Threading degree per core:2 SIMD:Y CPU Features:SSE2,SSE3,SSSE3,SSE4,AVX2,AVX512
CPU binding: not in use
CPU cache: L2:1310720 bytes (shared by 2 threads) L3:50331648 bytes (shared by 2 threads)
Physical Memory(MB): total:3933 free:128
Virtual  Memory(MB): total:3933 free:128
Swap     Memory(MB): total:0 free:0
Kernel   Params: msgMaxMessageSize:65536 msgMsgMap:65536 msgMaxQueueIDs:32768
                 msgNumberOfHeaders:65536 msgMaxQueueSize:65536
                 msgMaxSegmentSize:16 shmMax:9223372036854775807 shmMin:1
                 shmIDs:32768 shmSegments:32768 semMap:1024000000 semIDs:32768
                 semNum:1024000000 semUndo:1024000000 semNumPerID:32000
                 semOps:500 semUndoSize:20 semMaxVal:32767
                 semAdjustOnExit:32767
Cur cpu time limit (seconds)  = 0xFFFFFFFFFFFFFFFF
Cur file size limit (bytes) = 0xFFFFFFFFFFFFFFFF
Cur data size (bytes)  = 0xFFFFFFFFFFFFFFFF
Cur stack size (bytes)  = 0x0000000000800000
Cur core size (bytes)  = 0xFFFFFFFFFFFFFFFF
Cur memory size (bytes) = 0xFFFFFFFFFFFFFFFF
nofiles (descriptors)  = 0x000000000000FFFE
Cur maximum number of processes = 0xFFFFFFFFFFFFFFFF
Disk: 4K Device Support: NONE

Information in this record is only valid at the time when this file was
created (see this record's time stamp)

2023-01-03-21.11.08.208402+000 I2118E516             LEVEL: Event
PID     : 18185                TID : 140458881705728 PROC : db2sysc 0
INSTANCE: db2inst1             NODE : 000            DB   : NPOLICE
APPHDL  : 0-8                  APPID: *LOCAL.db2inst1.230103211107
AUTHID  : DB2INST1             HOSTNAME: 172a429d98e0
EDUID   : 22                   EDUNAME: db2agent (NPOLICE) 0
FUNCTION: DB2 UDB, Self tuning memory manager, stmmGetSortheapCap, probe:553
MESSAGE : SORTHEAP tuning cap is set to 50000 pages.

2023-01-03-21.11.08.314743+000 I2635E671             LEVEL: Error
PID     : 18185                TID : 140458881705728 PROC : db2sysc 0
INSTANCE: db2inst1             NODE : 000            DB   : NPOLICE
APPHDL  : 0-8                  APPID: *LOCAL.db2inst1.230103211107
AUTHID  : DB2INST1             HOSTNAME: 172a429d98e0
EDUID   : 22                   EDUNAME: db2agent (NPOLICE) 0
FUNCTION: DB2 UDB, Self tuning memory manager, stmmStartSelfTuningMemoryManager, probe:836
MESSAGE : ZRC=0x8005006D=-2147155859=SQLE_CA_BUILT
          "SQLCA has been built and saved in component specific control block."
DATA #1 : String, 35 bytes
STMM Daemon could not be dispatched

2023-01-04-14.46.45.943376+000 I3307E516             LEVEL: Event
PID     : 18189                TID : 140165653718784 PROC : db2sysc 0
INSTANCE: db2inst1             NODE : 000            DB   : NPOLICE
APPHDL  : 0-8                  APPID: *LOCAL.db2inst1.230104144645
AUTHID  : DB2INST1             HOSTNAME: 172a429d98e0
EDUID   : 22                   EDUNAME: db2agent (NPOLICE) 0
FUNCTION: DB2 UDB, Self tuning memory manager, stmmGetSortheapCap, probe:553
MESSAGE : SORTHEAP tuning cap is set to 50000 pages.

2023-01-04-14.46.45.998980+000 I3824E671             LEVEL: Error
PID     : 18189                TID : 140165653718784 PROC : db2sysc 0
INSTANCE: db2inst1             NODE : 000            DB   : NPOLICE
APPHDL  : 0-8                  APPID: *LOCAL.db2inst1.230104144645
AUTHID  : DB2INST1             HOSTNAME: 172a429d98e0
EDUID   : 22                   EDUNAME: db2agent (NPOLICE) 0
FUNCTION: DB2 UDB, Self tuning memory manager, stmmStartSelfTuningMemoryManager, probe:836
MESSAGE : ZRC=0x8005006D=-2147155859=SQLE_CA_BUILT
          "SQLCA has been built and saved in component specific control block."
DATA #1 : String, 35 bytes
STMM Daemon could not be dispatched

2023-01-04-15.33.53.840212+000 I4496E516             LEVEL: Event
PID     : 18191                TID : 140461129852672 PROC : db2sysc 0
INSTANCE: db2inst1             NODE : 000            DB   : NPOLICE
APPHDL  : 0-8                  APPID: *LOCAL.db2inst1.230104153353
AUTHID  : DB2INST1             HOSTNAME: 172a429d98e0
EDUID   : 22                   EDUNAME: db2agent (NPOLICE) 0
FUNCTION: DB2 UDB, Self tuning memory manager, stmmGetSortheapCap, probe:553
MESSAGE : SORTHEAP tuning cap is set to 50000 pages.

2023-01-04-15.33.53.881956+000 I5013E671             LEVEL: Error
PID     : 18191                TID : 140461129852672 PROC : db2sysc 0
INSTANCE: db2inst1             NODE : 000            DB   : NPOLICE
APPHDL  : 0-8                  APPID: *LOCAL.db2inst1.230104153353
AUTHID  : DB2INST1             HOSTNAME: 172a429d98e0
EDUID   : 22                   EDUNAME: db2agent (NPOLICE) 0
FUNCTION: DB2 UDB, Self tuning memory manager, stmmStartSelfTuningMemoryManager, probe:836
MESSAGE : ZRC=0x8005006D=-2147155859=SQLE_CA_BUILT
          "SQLCA has been built and saved in component specific control block."
DATA #1 : String, 35 bytes
STMM Daemon could not be dispatched
