3ABD9631:0000000000000000:0000000000000000:0000000000000000:00000000:00000000:00000000:00000000:00000000:00000000:00000000:00000000: :11050800:00000001:00000101000000:00000000:00000000:0B05080000000000:                                                     
                                                                                                                                                                                                                                                               
                                                                                                                                                                                                                                                               
                                                                                                                                                                                                                                                               
